…
## Use the `readNWISdv` function from the [dataRetrieval]() package to get daily discharge values from the stations of interest

The parameter code “00060” is for daily discharge values in ft^3/s

``` r
parameterCd <- c("00060")

x <- fetch_usgs_discharge(stations)

x
```

    ## # A tibble: 136,654 × 4
    ##    agency_cd site_no  date       discharge
    ##    <chr>     <chr>    <date>         <dbl>
    ##  1 USGS      01021000 1959-10-01      2800
    ##  2 USGS      01021000 1959-10-02      2940
    ##  3 USGS      01021000 1959-10-03      1620
    ##  4 USGS      01021000 1959-10-04       656
    ##  5 USGS      01021000 1959-10-05      1870
    ##  6 USGS      01021000 1959-10-06      2670
    ##  7 USGS      01021000 1959-10-07      2850
    ##  8 USGS      01021000 1959-10-08      2950
    ##  9 USGS      01021000 1959-10-09      2880
    ## 10 USGS      01021000 1959-10-10      2780
    ## # ℹ 136,644 more rows
…
