…
Now we can access a more detailed inventory listing for each station.

``` r
inv = fetch_inventory(stations = stations) |>
  dplyr::mutate(duration = lastyear - firstyear + 1)
inv
```

    ## Simple feature collection with 137 features and 6 fields
    ## Geometry type: POINT
    ## Dimension:     XY
    ## Bounding box:  xmin: -71.1136 ymin: 42.2122 xmax: -68.2592 ymax: 44.9197
    ## Geodetic CRS:  WGS 84
    ## # A tibble: 137 × 7
    ##    id        element firstyear lastyear           geometry duration name     
    ##  * <chr>     <chr>       <dbl>    <dbl>        <POINT [°]>    <dbl> <chr>    
    ##  1 USC00170… TMAX         1982     2014 (-68.2592 44.3739)       33 ACADIA NP
    ##  2 USC00170… TMIN         1982     2014 (-68.2592 44.3739)       33 ACADIA NP
    ##  3 USC00170… TOBS         1982     2014 (-68.2592 44.3739)       33 ACADIA NP
    ##  4 USC00170… PRCP         1982     2014 (-68.2592 44.3739)       33 ACADIA NP
    ##  5 USC00170… SNOW         1982     2010 (-68.2592 44.3739)       29 ACADIA NP
    ##  6 USC00170… SNWD         1982     2010 (-68.2592 44.3739)       29 ACADIA NP
    ##  7 USC00170… DAPR         1988     2004 (-68.2592 44.3739)       17 ACADIA NP
    ##  8 USC00170… DASF         2003     2004 (-68.2592 44.3739)        2 ACADIA NP
    ##  9 USC00170… MDPR         1988     2006 (-68.2592 44.3739)       19 ACADIA NP
    ## 10 USC00170… MDSF         2003     2005 (-68.2592 44.3739)        3 ACADIA NP
    ## # ℹ 127 more rows
…
