…
``` r
z <- k_w |>
  mutate(window = windows) |>
  pivot_longer(cols = `Androscoggin River`:`Cal fall`, names_to = "var", values_to = "kurtosis")

z
```

    ## # A tibble: 1,216 × 4
    ##     date window var                kurtosis
    ##    <dbl>  <dbl> <chr>                 <dbl>
    ##  1  1.80      3 Androscoggin River      NaN
    ##  2  1.80      3 Narraguagus River       NaN
    ##  3  1.80      3 Durham Prcp             NaN
    ##  4  1.80      3 Durham Tmax             NaN
    ##  5  1.80      3 Durham Tmin             NaN
    ##  6  1.80      3 Blue Hill Prcp          NaN
    ##  7  1.80      3 Blue Hill Tmax          NaN
    ##  8  1.80      3 Blue Hill Tmin          NaN
    ##  9  1.80      3 Corinna Prcp            NaN
    ## 10  1.80      3 Corinna Tmax            NaN
    ## # ℹ 1,206 more rows
…
``` r
z |>
  arrange(desc(kurtosis))
```

    ## # A tibble: 1,216 × 4
    ##     date window var               kurtosis
    ##    <dbl>  <dbl> <chr>                <dbl>
    ##  1  1.80     14 PCI fall             29.9 
    ##  2  1.80     13 PCI fall             24.9 
    ##  3  1.80     12 PCI fall             24.7 
    ##  4  1.80     10 PCI fall             13.4 
    ##  5  1.80     11 PCI fall             12.8 
    ##  6  1.80     15 PCI fall              8.23
    ##  7  1.80     31 PCI fall              7.50
    ##  8  1.80     12 Narraguagus River     7.45
    ##  9  1.80     33 PCI fall              7.38
    ## 10  1.80     32 PCI fall              7.36
    ## # ℹ 1,206 more rows
